{
    "type":"sequential",
    "sourceFile":"isoCodes.json",
    "pk":"name",
    "columns":[
        "name",
        "alpha-2",
        "alpha-3",
        "country-code",
        "iso_3166-2",
        "region",
        "sub-region",
        "intermediate-region",
        "region-code",
        "sub-region-code",
        "intermediate-region-code"
    ]
}